{
  "daemon_name": "",
  "tasks": [
    {
      "worker_name": "shaya",
      "receivers": [
        { "addr": "localhost:9100" }
      ],
      "url": "https://httpbin.org/get",
      "method": "GET",
      "headers": [
        { "OAuth": "token" }
      ],
      "params": [
        {"standart": "1", "second": "test" }
      ],
      "ticker": "",
      "weather": "",
      "next_step": [
        {
          "target": [
            {
              "key": "models",
              "args": "",
              "next": "code"
            },
            {
              "key": "cars.#[model_id==%s]#",
              "args": "code",
              "next": ""
            }
          ],
          "url": "https://httpbin.org/post",
          "method": "POST",
          "headers": [
            { "OAuth": "token" }
          ],
          "params": [
            { "number": "%s" }
          ],
          "ticker": "",
          "weather": ""
        }
      ]
    }
  ]
}